{
    "name": "DataDelivery",
    "alias": "datadelivery",
    "description": "",
    "keywords": [],
    "active": 1,
    "order": 0,
    "providers": [
        "Modules\\DataDelivery\\Providers\\DataDeliveryServiceProvider"
    ],
    "aliases": {},
    "files": [
        "start.php"
    ],
    "requires": []
}
