{
    "name": "Dbmgmt",
    "alias": "dbmgmt",
    "description": "",
    "keywords": [],
    "active": 1,
    "order": 0,
    "providers": [
        "Modules\\Dbmgmt\\Providers\\DbmgmtServiceProvider"
    ],
    "aliases": {},
    "files": [
        "start.php"
    ],
    "requires": []
}
